<svg width="69" height="69" viewBox="0 0 69 69" fill="none" xmlns="http://www.w3.org/2000/svg">
<path d="M52.81 8.22C52.81 4.23 56.04 1 60.03 1C64.02 1 67.25 4.23 67.25 8.22" stroke="#EDEBD9" stroke-width="2" stroke-miterlimit="10" stroke-linecap="round" stroke-linejoin="round"/>
<path d="M52.81 8.22V60.67" stroke="#EDEBD9" stroke-width="2" stroke-miterlimit="10" stroke-linecap="round" stroke-linejoin="round"/>
<path d="M52.81 60.67C52.81 64.66 49.58 67.89 45.59 67.89C41.6 67.89 38.37 64.66 38.37 60.67" stroke="#EDEBD9" stroke-width="2" stroke-miterlimit="10" stroke-linecap="round" stroke-linejoin="round"/>
<path d="M60.03 1H22.8" stroke="#EDEBD9" stroke-width="2" stroke-miterlimit="10" stroke-linecap="round" stroke-linejoin="round"/>
<path d="M45.59 67.89H8.36" stroke="#EDEBD9" stroke-width="2" stroke-miterlimit="10" stroke-linecap="round" stroke-linejoin="round"/>
<path d="M16.08 8.22C16.08 4.23 19.31 1 23.3 1" stroke="#EDEBD9" stroke-width="2" stroke-miterlimit="10" stroke-linecap="round" stroke-linejoin="round"/>
<path d="M8.36 67.89C4.37 67.89 1.14 64.66 1.14 60.67" stroke="#EDEBD9" stroke-width="2" stroke-miterlimit="10" stroke-linecap="round" stroke-linejoin="round"/>
<path d="M52.81 12.03H67.25" stroke="#EDEBD9" stroke-width="2" stroke-miterlimit="10" stroke-linecap="round" stroke-linejoin="round"/>
<path d="M1.2 56.86H38.19" stroke="#EDEBD9" stroke-width="2" stroke-miterlimit="10" stroke-linecap="round" stroke-linejoin="round"/>
<path d="M16.08 8.22V56.86" stroke="#EDEBD9" stroke-width="2" stroke-miterlimit="10" stroke-linecap="round" stroke-linejoin="round"/>
<path d="M67.25 8.22V12.03" stroke="#EDEBD9" stroke-width="2" stroke-miterlimit="10" stroke-linecap="round" stroke-linejoin="round"/>
<path d="M38.37 56.86V60.67" stroke="#EDEBD9" stroke-width="2" stroke-miterlimit="10" stroke-linecap="round" stroke-linejoin="round"/>
<path d="M1.14 56.86V60.67" stroke="#EDEBD9" stroke-width="2" stroke-miterlimit="10" stroke-linecap="round" stroke-linejoin="round"/>
<path d="M22.89 16.35H45.5" stroke="#EDEBD9" stroke-width="2" stroke-miterlimit="10" stroke-linecap="round" stroke-linejoin="round"/>
<path d="M22.89 24.21H45.5" stroke="#EDEBD9" stroke-width="2" stroke-miterlimit="10" stroke-linecap="round" stroke-linejoin="round"/>
<path d="M22.89 32.06H45.5" stroke="#EDEBD9" stroke-width="2" stroke-miterlimit="10" stroke-linecap="round" stroke-linejoin="round"/>
<path d="M22.89 39.92H36.77" stroke="#EDEBD9" stroke-width="2" stroke-miterlimit="10" stroke-linecap="round" stroke-linejoin="round"/>
</svg>
