<svg width="65" height="64" viewBox="0 0 65 64" fill="none" xmlns="http://www.w3.org/2000/svg">
<path d="M42.71 10.26H21.77C15.64 10.26 10.67 15.23 10.67 21.36V42.3C10.67 48.43 15.64 53.4 21.77 53.4H42.71C48.84 53.4 53.81 48.43 53.81 42.3V21.36C53.81 15.23 48.84 10.26 42.71 10.26ZM41.69 41.28H22.79V22.38H41.69V41.28Z" stroke="#EDEBD9" stroke-width="2" stroke-miterlimit="10" stroke-linecap="round" stroke-linejoin="round"/>
<path d="M41.69 22.38H22.79V41.28H41.69V22.38Z" stroke="#EDEBD9" stroke-width="2" stroke-miterlimit="10" stroke-linecap="round" stroke-linejoin="round"/>
<path d="M22.79 62.56V53.4" stroke="#EDEBD9" stroke-width="2" stroke-miterlimit="10" stroke-linecap="round" stroke-linejoin="round"/>
<path d="M22.79 10.26V1.1" stroke="#EDEBD9" stroke-width="2" stroke-miterlimit="10" stroke-linecap="round" stroke-linejoin="round"/>
<path d="M32.24 62.66V53.4" stroke="#EDEBD9" stroke-width="2" stroke-miterlimit="10" stroke-linecap="round" stroke-linejoin="round"/>
<path d="M32.24 41.28V31.83V22.38" stroke="#EDEBD9" stroke-width="2" stroke-miterlimit="10" stroke-linecap="round" stroke-linejoin="round"/>
<path d="M32.24 10.26V1" stroke="#EDEBD9" stroke-width="2" stroke-miterlimit="10" stroke-linecap="round" stroke-linejoin="round"/>
<path d="M41.69 62.56V53.4" stroke="#EDEBD9" stroke-width="2" stroke-miterlimit="10" stroke-linecap="round" stroke-linejoin="round"/>
<path d="M41.69 10.26V1.1" stroke="#EDEBD9" stroke-width="2" stroke-miterlimit="10" stroke-linecap="round" stroke-linejoin="round"/>
<path d="M10.67 22.38H1.11" stroke="#EDEBD9" stroke-width="2" stroke-miterlimit="10" stroke-linecap="round" stroke-linejoin="round"/>
<path d="M63.37 22.38H53.81" stroke="#EDEBD9" stroke-width="2" stroke-miterlimit="10" stroke-linecap="round" stroke-linejoin="round"/>
<path d="M10.67 31.83H1" stroke="#EDEBD9" stroke-width="2" stroke-miterlimit="10" stroke-linecap="round" stroke-linejoin="round"/>
<path d="M22.79 31.83H32.24H41.69" stroke="#EDEBD9" stroke-width="2" stroke-miterlimit="10" stroke-linecap="round" stroke-linejoin="round"/>
<path d="M63.48 31.83H53.81" stroke="#EDEBD9" stroke-width="2" stroke-miterlimit="10" stroke-linecap="round" stroke-linejoin="round"/>
<path d="M10.67 41.28H1.11" stroke="#EDEBD9" stroke-width="2" stroke-miterlimit="10" stroke-linecap="round" stroke-linejoin="round"/>
<path d="M63.37 41.28H53.81" stroke="#EDEBD9" stroke-width="2" stroke-miterlimit="10" stroke-linecap="round" stroke-linejoin="round"/>
</svg>
