<svg width="66" height="72" viewBox="0 0 66 72" fill="none" xmlns="http://www.w3.org/2000/svg">
<path d="M64.22 21.0549C63.61 17.2549 62.2 13.8049 59.67 10.8749C57.78 8.67486 55.44 7.01486 53.03 5.46486C48.34 2.46486 43.24 0.824861 37.63 1.01486C32.57 1.18486 27.61 2.02486 22.71 3.28486C15.49 5.13486 10.97 9.82486 8.73 16.7849C7.92 19.3249 7.33 21.9449 6.2 24.3849C5.44 26.0449 5.87999 27.5249 7.25999 28.7249C7.56999 28.9949 7.86 29.2749 8.16 29.5649C8.48 29.8849 8.55 30.2249 8.3 30.6549C7.21 32.5349 6.2 34.4749 5.06 36.3249C4.18 37.7249 3.08 38.9849 2.19 40.3849C1.21 41.9249 1.54 43.3149 3.03 44.3549C3.64 44.7849 4.31 45.1149 4.97 45.4849C6.1 46.1149 6.24 46.5749 5.66 47.7249C5.37 48.3149 5.06 48.8949 4.81 49.5049C4.5 50.2549 4.73999 50.8849 5.34999 51.3849C5.65999 51.6449 5.98 51.8949 6.15 52.0249C6.11 52.8149 5.98 53.4549 6.05 54.0849C6.14 54.8149 6.81 55.1049 7.39 55.4449C8.64 56.1949 8.72 56.3349 8.4 57.7449C8.14 58.8749 8.13 59.9849 8.38 61.1249C9.1 64.4749 11.85 65.6249 14.44 64.7949C16.99 63.9749 19.58 63.2949 22.13 62.5149C23.77 62.0049 23.89 62.0049 25 63.3149C25.04 63.3649 25.08 63.4149 25.13 63.4649C26.55 65.2549 27.44 67.3149 28.07 69.4849C28.24 70.0749 28.44 70.6049 29.01 70.9049H57.15C57.65 70.8749 58.15 70.8649 58.64 70.8149C59.55 70.7249 60.03 70.0149 59.7 69.1649C59.43 68.5149 59.06 67.9149 58.73 67.2949C58.39 66.6749 57.98 66.0949 57.68 65.4649C56.55 63.1449 55.96 60.6449 55.51 58.1149C55.09 55.7349 54.86 53.3449 55.14 50.9249C55.61 47.0449 57.26 43.6849 59.63 40.6349C60.47 39.5549 61.26 38.4349 62 37.2949C63.54 34.8849 64.43 32.2449 64.69 29.3749C64.92 26.5949 64.66 23.8249 64.22 21.0549Z" stroke="#EDEBD9" stroke-width="2" stroke-miterlimit="10"/>
<path d="M17.41 18.6049C16.66 14.5049 20.68 10.9649 21.52 10.2649C25.03 7.34486 29.13 7.28487 33.62 7.21487C39.32 7.12487 43.99 7.05486 48.53 10.2649C48.83 10.4849 55.63 15.5349 55.81 23.4149C55.89 26.8549 54.68 29.7549 54.32 30.6049C53.34 32.8949 52.31 33.9849 51.92 34.3849C51.01 35.2949 49.38 36.9149 48.09 36.5549C46.12 36.0149 47.49 31.5949 45.01 28.4649C43.23 26.2349 39.34 25.7749 31.62 24.9449C24.99 24.2349 21.53 24.4949 19.06 21.7749C17.75 20.3349 17.46 18.8849 17.41 18.6049Z" stroke="#EDEBD9" stroke-width="2" stroke-miterlimit="10" stroke-linecap="round" stroke-linejoin="round"/>
</svg>
